<svg id="Group_29" data-name="Group 29" xmlns="http://www.w3.org/2000/svg" viewBox="0 0 149 52.021">
  <defs>
    <style>
      .cls-1 {
        fill: #fff;
      }
    </style>
  </defs>
  <path id="Path_2" data-name="Path 2" class="cls-1" d="M106.634,27.107l-.614-.877-.526-.965-.263-.132-.614.044-.482-3.465v-.833l-.395-.833V17.282l-.395-1.93-1.447-.57-.132-4.518L95.537,10l-.307-.263H93.695l-.439.439H80.449V10.7H77.992l-5,.79H71.106V8.948H66.5v.833H60.447v1.754l-15.922.044v.439H42.245v.57H40.1v-2.5l-1.579-.307L36.5,10v1.053h-1.14V5.746l.482-1.053H34.92v-.57l-.482-.57.175-1.1L33.341,0l-.526,1.14-.7,1.316.219,1.184-.658.526v.526H30.489L31.1,5.7V7.807L29.042,6.316l-2.5,1.842H25.094l.526.833-.7.439v1.447l-2.983.088V13.9l-2.5.132v3.2H17.55v.307H14.48v1.009L14,18.948h-1.14v2.237H10.532l-3.2.132V21.01H6.058v-1.8l-2.851.351H2.593v1.8H1.19l.307.614v1.316l.263.526L.4,33.73l.526.044,1.36-10.088-.263-.57V21.887H4.041v1.4l19.387-.307-.921,7.588.526.088L24,22.984h0l.132-1.053h.395l.263.307,5.878.044.833-5.658h0v-.088h0l5.22-.132V15.352l8.334-.088v-3.07l27.94-.088h0l5-.79h2.983V10.79h12.5l.439-.439h1.1l.307.263,5.921.263.088,3.948-1.316.044-1.228.79-1.053-.351-1.579-.263-2.281-.088-1.1-.965H91.9l-1.4,1.316-3.158.219-.088.088-.79.79a9.7,9.7,0,0,0-1.14-.614h-.044L83.3,15.571l-2.807.746H75.668L74,17.72l-.175-.132-.044.044-2.895-.79-2.632.482-3.334-.658-1.754,1.4-4.342.79-1.053-.833-2.412-.307-2.544.482-1.491-.79-1.184-.526H48.824l-1.4.351-.965,1.4L43.648,19.65l-1.1-.482H40.578L39,19.694l-.219,1.4-.132.79.132.658-.439.263-.57.57H36.718l-.307.877.526.175.175-.482h.921l.7-.7.614-.439-.175-.921.132-.7.175-1.1,1.184-.395h1.8l1.184.526,3.07-1.1.965-1.4,1.14-.307h1.14l1.053.482,1.667.833,2.676-.482,2.193.263,1.14.877,4.825-1.009,1.667-1.316,3.2.614,2.588-.482,2.939.79,1.711,1.1,1.272.965.088.132h1.491v.833l.526.132.79-1.667,1.8-.482h.044l2.105-.877.921.307.263,1.272.044.088.395.746.132.132.79.263.175-.526-.7-.219-.351-.614-.263-1.4-.175-.219-1.184-.395h-.175l-2.193.921-1.886.482-.175.132-.395.79-.263-.263H77.027l-1.184-.921-1.316-.877,1.4-1.14h4.693l2.763-.746,1.755.175c.439.219.921.482,1.053.57l.132.132c.175.088.307,0,.833-.526l.395-.395,3.114-.219,1.36-1.272h.526l1.1.965,2.412.088,1.491.263,1.272.439,1.36-.833,1.36-.044,1.316.526.351,1.579v2.807l.395.833v.482h-.044v.088l-1.491.746-.7.175-2.456-1.14-2.281.219-.746-.263-1.053,1.1h-1.36l-.7-.439h-1.8l-1.754-.614h-3.6l-.482.526-2.149-.263H81.282L79.615,21.4H77.422l-.263.921-.614-.351-4.123.57-1.14.7-2.5-.7-1.491.746-.921.307-.351.307-.877.351-.877.658-1.886.044-1.886.79-2.281.614-2.412.175-1.36-.482-.307-.877-1.053-.351-.965-.526-.79-.921-.57-.658-.175-.877-.307-.614L49.482,20l-1.491-.044-.7-.614-1.272.614-1.228.877L43.78,23.51l-.088.439H39.525l-.263,1.886-2.588-.044v-.439l-1.4.088V24.3H32.858v1.579l-1.009.088-.219-.395H29.393l-.351,1.447.526.088.263-1.009h1.491l.219.439,1.842-.175V24.738h.132v1.842l-.439,6.185.526.044.439-6.228V24.694H34.7v1.184l1.4-.088v.395h0l.351,5.614.526-.044-.351-5.571,2.544.044.219,4.255.526-.044-.263-4.518.219-1.623h3.553l-.219.965v.526l-.7.526-1.14,1.228.439,1.184-.614.57-.263,1.1.526.132.219-.921.746-.7-.439-1.228.877-.965.877-.658V25.44l.439-1.842.965-2.5,1.053-.746.921-.439.57.526,1.4.044.614.965.263.526.175.965.658.79.877,1.009,1.1.614.833.307.307.877,1.711.614,2.544-.175h.044l2.325-.614,1.842-.746,1.93-.044.965-.7.921-.351.351-.307.877-.307,1.316-.7,2.5.746,1.228-.746,3.816-.526,2.062,1.14.307,1.754.482-.088V25.44h.526V21.975l1.36.175h1.711l2.369.307.526-.526h3.29l1.754.614h1.754l.7.439h1.711l.965-1.009.57.175,2.237-.219,2.5,1.184.965-.219,1.4-.7.395,3.114-.351.044-1.053-1.316-.132-.088-2.325-.746-.219.044-.965.658-2.544-.7h-.175l-1.711.746-.088.044-.921.921-1.535,1.009-.132.219v1.886h.526V26.273l1.447-.965.044-.044.921-.921,1.579-.658,2.544.7L99,24.344l.965-.658,2.105.658,1.1,1.36.219.088,1.447-.132.439.833.526.746-.351.57.482.263.439-.7ZM42.245,13.159V14.65l-2.149.044V13.159Zm-5.22-1.579v-1.1l1.447-.175,1.053.219v2.062l-7.676-.351v-.044l-5.527.219,1.886-.833h8.816ZM32.2,5.22V4.386l.7-.57L32.639,2.5l.614-1.14.088-.175L34,2.5l-.175,1.184.526.614V5.22h.614l-.175.395v5.439H31.674V5.527L31.5,5.22h.7ZM25.4,9.737l.921-.57-.307-.439h.658l2.369-1.711L31.1,8.509V11.1H28.077l-.79.307-.833-.614-1.053.044v-1.1Zm-2.939,1.754,3.816-.175.439.307-1.842.79H24.7l-.175,3.246h-.351V13.685l-1.711.088Zm1.184,2.851V15.7h-.921v.833H20.006V14.518Zm-3.641,2.763h3.246v-.833h1.8v-.351l.175-2.895,6.053-.219-.307,3.509-3.684,3.07V16.054L24.7,17.764H22.989V19.3H20.006V17.106ZM3.119,21.361V20.133h.132l2.281-.263V21.58H6.8v.307l3.728-.175h2.851V19.475h.833l.833-.7v-.746h2.018v1.14l1.053.088V17.764h1.316v2.062h3.553v2.588l-18.378.307v-1.36Zm21.624,0H23.6l-.088.79v-3.9h1.316l1.886-1.228v2.807l-1.711,1.4.219.439h-.263Zm5.439.307h-4.3l-.175-.307,5.132-4.255Zm6.009-6.974v1.1l-4.649.132.263-3.114,7.764.351v1.535Zm6.579-.044V12.588h1.711V14.65Zm18.115-4.342h6.053V9.474h3.553v2.018l-9.606.044V10.308ZM79.045,23.379l-1.36-.79.175-.658h1.491v3.2Z" transform="translate(-0.225)"/>
  <path id="Path_3" data-name="Path 3" class="cls-1" d="M35.2,83.951h2.281a4.817,4.817,0,0,1-1.623,2.018,5.444,5.444,0,0,1-3.29,1.14,5.237,5.237,0,0,1-3.728-1.491,5.812,5.812,0,0,1-1.272-1.667A5.141,5.141,0,0,1,27,81.539a5.238,5.238,0,0,1,1.667-3.9A5.159,5.159,0,0,1,32.483,76.1a5.608,5.608,0,0,1,4.386,2.105,5.137,5.137,0,0,1,.614,1.1H35.246A3.743,3.743,0,0,0,32.4,77.9a3.116,3.116,0,0,0-1.8.57,3.477,3.477,0,0,0-1.272,1.491,4.112,4.112,0,0,0-.351,1.579,3.579,3.579,0,0,0,1.1,2.632,3.3,3.3,0,0,0,2.412,1.053,2.707,2.707,0,0,0,1.36-.307,3.017,3.017,0,0,0,1.36-.965" transform="translate(-15.157 -42.721)"/>
  <rect id="Rectangle_30" data-name="Rectangle 30" class="cls-1" width="1.974" height="10.615" transform="translate(24.344 33.598)"/>
  <path id="Path_4" data-name="Path 4" class="cls-1" d="M67.309,87.215V78.442H63.8V76.6h9.036v1.842H69.283v8.772Z" transform="translate(-35.816 -43.002)"/>
  <path id="Path_5" data-name="Path 5" class="cls-1" d="M90.753,87.215V78.442H87.2V76.6h9.036v1.842H92.727v8.772Z" transform="translate(-48.952 -43.002)"/>
  <path id="Path_6" data-name="Path 6" class="cls-1" d="M108.1,87.215,112.53,76.6h1.535l4.43,10.615h-2.149l-1.14-2.719h-3.772l-1.184,2.719Zm4.035-4.606h2.281l-1.14-3.246Z" transform="translate(-60.685 -43.002)"/>
  <path id="Path_7" data-name="Path 7" class="cls-1" d="M135.4,87.215V76.6h2.412a7.364,7.364,0,0,1,3.728.79,4.57,4.57,0,0,1,1.754,1.886,5.529,5.529,0,0,1,.614,2.632,5.414,5.414,0,0,1-1.14,3.377,4.259,4.259,0,0,1-1.93,1.447,8.492,8.492,0,0,1-3.027.439H135.4Zm1.974-1.842h.439a6.671,6.671,0,0,0,1.491-.132,3.747,3.747,0,0,0,1.053-.395,3.007,3.007,0,0,0,1.184-1.272,3.293,3.293,0,0,0,.395-1.623,3.455,3.455,0,0,0-.7-2.193,2.858,2.858,0,0,0-1.36-1.009,5.871,5.871,0,0,0-2.149-.307h-.395v6.93Z" transform="translate(-76.011 -43.002)"/>
  <path id="Path_8" data-name="Path 8" class="cls-1" d="M159.8,87.215V76.6h7.281v1.842h-5.307V81.03h5.132v1.8h-5.132v2.544h5.307v1.842Z" transform="translate(-89.708 -43.002)"/>
  <path id="Path_9" data-name="Path 9" class="cls-1" d="M182.1,87.215V76.6h1.93v8.772h4.825v1.842Z" transform="translate(-102.227 -43.002)"/>
  <path id="Path_10" data-name="Path 10" class="cls-1" d="M201.4,87.215V76.6h1.93v8.772h4.825v1.842Z" transform="translate(-113.061 -43.002)"/>
  <path id="Path_11" data-name="Path 11" class="cls-1" d="M219.6,87.215,224.03,76.6h1.535L230,87.215h-2.149l-1.14-2.719h-3.772l-1.184,2.719Zm4.035-4.606h2.281l-1.14-3.246Z" transform="translate(-123.279 -43.002)"/>
  <path id="Path_12" data-name="Path 12" class="cls-1" d="M.4,84.493v1.623H1.584l-.57,1.93H2.725l.57-1.93H5.444l-.57,1.93H6.585l.57-1.93H8.778V84.493H7.637l.439-1.535H9.611V81.335H8.558L9,79.8H7.286l-.439,1.535H4.7L5.137,79.8H3.426l-.439,1.535H1.277v1.623H2.505l-.439,1.535Zm3.816-1.535H6.365l-.439,1.535H3.777Z" transform="translate(-0.225 -44.798)"/>
  <path id="Path_13" data-name="Path 13" class="cls-1" d="M254.657,77.274l-1.36,1.36a4.045,4.045,0,0,0-3.026-1.36,3.58,3.58,0,0,0-2.544,1.009,3.442,3.442,0,0,0,.044,4.913,3.5,3.5,0,0,0,2.588,1.009,3.108,3.108,0,0,0,1.711-.439,2.743,2.743,0,0,0,1.1-1.316h-2.939V80.607h5.132v.439a4.844,4.844,0,0,1-.7,2.544,5.176,5.176,0,0,1-1.8,1.842,4.919,4.919,0,0,1-2.588.614,5.611,5.611,0,0,1-2.851-.7,5.025,5.025,0,0,1-1.974-1.974,5.554,5.554,0,0,1-.746-2.763,4.9,4.9,0,0,1,1.36-3.509,5.316,5.316,0,0,1,4.123-1.8,5.548,5.548,0,0,1,4.474,1.974Z" transform="translate(-137.369 -42.272)"/>
  <path id="Path_14" data-name="Path 14" class="cls-1" d="M277.307,75.4a5.075,5.075,0,0,1,3.728,1.579,5.4,5.4,0,0,1,.044,7.588,4.966,4.966,0,0,1-3.728,1.535,5.062,5.062,0,0,1-3.816-1.579A5.307,5.307,0,0,1,272,80.751a5.256,5.256,0,0,1,2.632-4.606A5.563,5.563,0,0,1,277.307,75.4Zm0,1.93a3.077,3.077,0,0,0-2.369.965,3.371,3.371,0,0,0-.965,2.5,3.192,3.192,0,0,0,1.228,2.676,3.3,3.3,0,0,0,4.518-.219,3.609,3.609,0,0,0,0-4.913A3.25,3.25,0,0,0,277.307,77.33Z" transform="translate(-152.695 -42.328)"/>
  <path id="Path_15" data-name="Path 15" class="cls-1" d="M298.763,76h6.185l-3.641,8.334h3.421V86.22H298.5l3.641-8.29h-3.334V76Z" transform="translate(-167.571 -42.665)"/>
  <path id="Path_16" data-name="Path 16" class="cls-1" d="M320.807,75.4a5.075,5.075,0,0,1,3.728,1.579,5.4,5.4,0,0,1,.044,7.588,4.966,4.966,0,0,1-3.728,1.535,5.062,5.062,0,0,1-3.816-1.579,5.307,5.307,0,0,1-1.535-3.772,5.257,5.257,0,0,1,2.632-4.606A5.563,5.563,0,0,1,320.807,75.4Zm-.044,1.93a3.077,3.077,0,0,0-2.369.965,3.371,3.371,0,0,0-.965,2.5,3.192,3.192,0,0,0,1.228,2.676,3.3,3.3,0,0,0,4.518-.219,3.609,3.609,0,0,0,0-4.913A3.119,3.119,0,0,0,320.763,77.33Z" transform="translate(-177.115 -42.328)"/>
  <path id="Path_17" data-name="Path 17" class="cls-1" d="M1.272,109.3c1.535,0,2.325.658,2.325,1.974s-.79,1.974-2.369,1.974H0V109.3ZM.7,112.721H1.14c1.228,0,1.754-.439,1.754-1.447,0-1.053-.526-1.491-1.711-1.491H.7Z" transform="translate(0 -61.359)"/>
  <path id="Path_18" data-name="Path 18" class="cls-1" d="M14.9,109.3v3.948h-.7V109.3Z" transform="translate(-7.972 -61.359)"/>
  <path id="Path_19" data-name="Path 19" class="cls-1" d="M24.144,110.14a1.008,1.008,0,0,0-.965-.614c-.439,0-.7.219-.7.482,0,.351.307.526.921.746a3.05,3.05,0,0,1,1.009.439.981.981,0,0,1,.482.79c0,.658-.614,1.14-1.535,1.14a1.753,1.753,0,0,1-1.754-1.009l.658-.219a1.133,1.133,0,0,0,1.1.7c.482,0,.833-.263.833-.614,0-.395-.395-.526-1.1-.79-.877-.307-1.316-.57-1.316-1.14,0-.614.57-1.053,1.447-1.053a1.451,1.451,0,0,1,1.535.921Z" transform="translate(-12.126 -61.19)"/>
  <path id="Path_20" data-name="Path 20" class="cls-1" d="M37.051,110.54a.921.921,0,0,0-1.009-.746c-.7,0-1.14.526-1.14,1.579,0,1.009.439,1.535,1.184,1.535a1,1,0,0,0,1.053-.79l.658.132a1.678,1.678,0,0,1-1.711,1.184,2.022,2.022,0,0,1,0-4.035,1.49,1.49,0,0,1,1.623,1.1Z" transform="translate(-19.199 -61.415)"/>
  <path id="Path_21" data-name="Path 21" class="cls-1" d="M51.06,111.218a1.844,1.844,0,0,1-1.93,2.018,2.02,2.02,0,1,1,1.93-2.018Zm-3.158,0c0,1.009.439,1.535,1.228,1.535s1.228-.526,1.228-1.535-.439-1.535-1.228-1.535S47.9,110.209,47.9,111.218Z" transform="translate(-26.497 -61.302)"/>
  <path id="Path_22" data-name="Path 22" class="cls-1" d="M61.2,109.3l1.228,3.2h.044l1.228-3.2h.7l-1.535,3.948h-.833L60.5,109.3Z" transform="translate(-33.963 -61.359)"/>
  <path id="Path_23" data-name="Path 23" class="cls-1" d="M77.483,109.3v.482H75.2v1.14h1.623v.482H75.2v1.316H77.57v.526H74.5V109.3Z" transform="translate(-41.823 -61.359)"/>
  <path id="Path_24" data-name="Path 24" class="cls-1" d="M88.591,109.3c1.272,0,1.886.351,1.886,1.1,0,.526-.307.877-.965,1.009l1.1,1.842h-.746l-1.009-1.711H87.8v1.711h-.7V109.3Zm-.79,1.754h.79c.79,0,1.14-.175,1.14-.658s-.351-.658-1.14-.658H87.8Z" transform="translate(-48.896 -61.359)"/>
  <path id="Path_25" data-name="Path 25" class="cls-1" d="M110.456,109.3l1.447,3.948h-.7l-.395-1.053h-1.754l-.351,1.053H108l1.491-3.948Zm-1.184,2.369h1.4l-.658-1.93h-.044Z" transform="translate(-60.629 -61.359)"/>
  <path id="Path_26" data-name="Path 26" class="cls-1" d="M131.377,109.188l1.535,2.149a9.393,9.393,0,0,0,.57.833c0-.219-.044-.482-.044-.79v-2.237h.658v3.948h-.614l-1.754-2.369c-.175-.219-.351-.526-.614-.921,0,.263.044.526.044.833v2.412H130.5V109.1h.877Z" transform="translate(-73.26 -61.246)"/>
  <path id="Path_27" data-name="Path 27" class="cls-1" d="M146.412,109.3l1.447,3.948h-.7l-.395-1.053h-1.754l-.351,1.053H144l1.491-3.948Zm-1.184,2.369h1.4l-.658-1.93h-.044Z" transform="translate(-80.838 -61.359)"/>
  <path id="Path_28" data-name="Path 28" class="cls-1" d="M159.421,109.3v.482h-1.36v3.465h-.7v-3.465H156V109.3Z" transform="translate(-87.575 -61.359)"/>
  <path id="Path_29" data-name="Path 29" class="cls-1" d="M170.1,109.3v3.948h-.7V109.3Z" transform="translate(-95.097 -61.359)"/>
  <path id="Path_30" data-name="Path 30" class="cls-1" d="M180.86,111.215a1.844,1.844,0,0,1-1.93,2.018,2.02,2.02,0,0,1,0-4.035A1.8,1.8,0,0,1,180.86,111.215Zm-3.158,0c0,1.009.439,1.535,1.228,1.535s1.228-.526,1.228-1.535-.439-1.535-1.228-1.535S177.7,110.207,177.7,111.215Z" transform="translate(-99.364 -61.3)"/>
  <path id="Path_31" data-name="Path 31" class="cls-1" d="M192.377,109.188l1.535,2.149a9.393,9.393,0,0,0,.57.833c0-.219-.044-.482-.044-.79v-2.237h.658v3.948h-.614l-1.754-2.369c-.175-.219-.351-.526-.614-.921,0,.263.044.526.044.833v2.412H191.5V109.1h.877Z" transform="translate(-107.504 -61.246)"/>
  <path id="Path_32" data-name="Path 32" class="cls-1" d="M207.412,109.3l1.447,3.948h-.7l-.395-1.053h-1.755l-.351,1.053H205l1.491-3.948Zm-1.184,2.369h1.4l-.658-1.93h-.044Z" transform="translate(-115.082 -61.359)"/>
  <path id="Path_33" data-name="Path 33" class="cls-1" d="M219.9,109.3v3.421h2.105v.526H219.2V109.3Z" transform="translate(-123.054 -61.359)"/>
  <path id="Path_34" data-name="Path 34" class="cls-1" d="M241.721,109.3v.482h-1.36v3.465h-.7v-3.465H238.3V109.3Z" transform="translate(-133.776 -61.359)"/>
  <path id="Path_35" data-name="Path 35" class="cls-1" d="M252.991,109.3c1.272,0,1.886.351,1.886,1.1,0,.526-.307.877-.965,1.009l1.1,1.842h-.746l-1.009-1.711H252.2v1.711h-.7V109.3Zm-.79,1.754h.79c.79,0,1.14-.175,1.14-.658s-.351-.658-1.14-.658h-.79Z" transform="translate(-141.186 -61.359)"/>
  <path id="Path_36" data-name="Path 36" class="cls-1" d="M268.283,109.3v.482H266v1.14h1.623v.482H266v1.316h2.369v.526H265.3V109.3Z" transform="translate(-148.933 -61.359)"/>
  <path id="Path_37" data-name="Path 37" class="cls-1" d="M279.156,109.3l1.447,3.948h-.7l-.395-1.053h-1.755l-.351,1.053h-.7l1.491-3.948Zm-1.228,2.369h1.4l-.658-1.93h-.044Z" transform="translate(-155.333 -61.359)"/>
  <path id="Path_38" data-name="Path 38" class="cls-1" d="M292.644,110.14a1.008,1.008,0,0,0-.965-.614c-.439,0-.7.219-.7.482,0,.351.307.526.921.746a3.05,3.05,0,0,1,1.009.439.981.981,0,0,1,.483.79c0,.658-.614,1.14-1.535,1.14a1.753,1.753,0,0,1-1.754-1.009l.658-.219a1.133,1.133,0,0,0,1.1.7c.482,0,.833-.263.833-.614,0-.395-.395-.526-1.1-.79-.877-.307-1.316-.57-1.316-1.14,0-.614.57-1.053,1.447-1.053a1.451,1.451,0,0,1,1.535.921Z" transform="translate(-162.856 -61.19)"/>
  <path id="Path_39" data-name="Path 39" class="cls-1" d="M304.058,109.3v2.5c0,.7.307,1.009,1.1,1.009.833,0,1.1-.307,1.1-1.009v-2.5h.7v2.632c0,.921-.614,1.4-1.8,1.4-1.14,0-1.755-.482-1.755-1.447v-2.544h.658Z" transform="translate(-170.322 -61.359)"/>
  <path id="Path_40" data-name="Path 40" class="cls-1" d="M319.391,109.3c1.272,0,1.886.351,1.886,1.1,0,.526-.307.877-.965,1.009l1.1,1.842h-.746l-1.009-1.711H318.6v1.711h-.7V109.3Zm-.79,1.754h.79c.789,0,1.14-.175,1.14-.658s-.351-.658-1.14-.658h-.79Z" transform="translate(-178.462 -61.359)"/>
  <path id="Path_41" data-name="Path 41" class="cls-1" d="M334.583,109.3v.482H332.3v1.14h1.623v.482H332.3v1.316h2.369v.526H331.6V109.3Z" transform="translate(-186.153 -61.359)"/>
  <circle id="Ellipse_7" data-name="Ellipse 7" class="cls-1" cx="0.79" cy="0.79" r="0.79" transform="translate(16.624 30.747)"/>
</svg>
